Error: memory error: out of bound pointer
File: /home/smallfish/514/libpng-1.2.20/pngrutil.c
Line: 1677
assembly.ll line: 47512
Stack: 
	#0 00047512 in png_handle_pCAL (png_ptr=71976848, info_ptr=72051008, length=44) at /home/smallfish/514/libpng-1.2.20/pngrutil.c:1677
	#1 00061592 in png_read_info (png_ptr=71976848, info_ptr=72051008) at /home/smallfish/514/libpng-1.2.20/pngread.c:481
	#2 00001357 in test_one_file (inname=71337008, outname=71338176) at /home/smallfish/514/libpng-1.2.20/pngtest.c:791
	#3 00002304 in main (argc=1, argv=55361568) at /home/smallfish/514/libpng-1.2.20/pngtest.c:1465
Info: 
	address: 72253661
	next: object at 72263120 of size 1
		MO12983[1] allocated at png_handle_pCAL():  %type = alloca i8
	prev: object at 72253616 of size 45
		MO13044[45] allocated at png_malloc_default():  %6 = call noalias i8* @malloc(i64 %5) nounwind, !dbg !9500
